<svg height="463pt" viewBox="0 0 463 463.696" width="463pt" xmlns="http://www.w3.org/2000/svg" fill="#0b1656">
    <path d="m310.890625 193.679688 38.664063-66.976563-27.710938-16-38.664062 66.976563 3.183593 26.472656zm0 0"/>
    <path d="m361.554688 105.910156c4.347656-7.644531 1.710937-17.363281-5.90625-21.761718-7.617188-4.398438-17.355469-1.824219-21.804688 5.761718l-4 6.929688 27.710938 16zm0 0"/>
    <path d="m66.21875 171.359375c-.101562.242187-.214844.472656-.3125.710937-1.429688 3.449219-2.664062 7-3.804688 10.59375-.195312.625-.433593 1.230469-.625 1.863282-.984374 3.265625-1.777343 6.601562-2.511718 9.960937-.207032.953125-.488282 1.878907-.671875 2.839844-.640625 3.199219-1.074219 6.535156-1.480469 9.847656-.128906 1.082031-.34375 2.136719-.457031 3.199219-.421875 4.402344-.65625 8.832031-.65625 13.320312v2.808594l-9.726563 12.152344-45.625 57.039062h39.351563v64c0 13.253907 10.746093 24 24 24h56v80h160v-136.296874l2.664062-2.398438c2.738281-2.449219 5.304688-5.007812 7.800781-7.625.648438-.6875 1.289063-1.390625 1.921876-2.085938 2.175781-2.402343 4.269531-4.800781 6.253906-7.328124l.679687-.800782c4.785157-6.1875 9.027344-12.773437 12.679688-19.6875v-15.777344h16v15.59375c7.21875-.34375 14.398437-1.226562 21.480469-2.648437l-4.078126-15.242187 15.453126-4.132813 4.066406 15.199219c6.855468-2.273438 13.527344-5.066406 19.957031-8.351563l-7.804687-13.527343 13.855468-8 7.832032 13.597656c6.019531-3.992188 11.734374-8.433594 17.085937-13.289063l-11-10.992187 11.320313-11.316406 11.03125 10.957031c4.839843-5.355469 9.269531-11.066407 13.25-17.085938l-13.601563-7.832031 8-13.855469 13.527344 7.804688c3.292969-6.441407 6.085937-13.128907 8.355469-20l-15.203126-4.0625 4.136719-15.457031 15.242188 4.082031c1.429687-7.070313 2.328125-14.238281 2.6875-21.441407h-15.59375v-16h15.59375c-.34375-7.214843-1.226563-14.394531-2.648438-21.480468l-15.242187 4.082031-4.101563-15.457031 15.199219-4.0625c-2.273438-6.859375-5.0625-13.53125-8.351562-19.960938l-13.527344 7.808594-8-13.855469 13.597656-7.832031c-4.003906-6.023438-8.453125-11.738281-13.320312-17.089844l-11.03125 11-11.320313-11.320312 11-10.992188c-5.355469-4.839844-11.066406-9.265625-17.085937-13.246094l-7.832032 13.597657-13.855468-8 7.804687-13.527344c-6.429687-3.289063-13.101563-6.078125-19.957031-8.351563l-4.066406 15.199219-15.453126-4.136719 4.078126-15.199218c-7.078126-1.460938-14.261719-2.386719-21.480469-2.765625v15.589843h-16v-15.695312c-7.214844.398438-14.390625 1.339844-21.464844 2.816406l4.066406 15.199219-15.457031 4.082031-4.070312-15.203125c-6.867188 2.269531-13.554688 5.054688-20 8.328125l7.839843 13.601563-13.855469 8-7.84375-13.601563c-6.039062 3.964844-11.777343 8.367188-17.167968 13.175782l11.089844 11.082031-11.304688 11.367187-11.03125-11.046875c-4.8125 5.382813-9.21875 11.117188-13.183594 17.152344l13.542969 7.816406-8 13.855469-13.597656-7.863281c-1.523438 2.984375-2.941407 6.03125-4.257813 9.132812-53.085937 1.914063-100.222656 34.488281-120.785156 83.464844zm223.9375 113.503906-15.457031-4.144531 4.144531-15.453125 15.457031 4.132813zm-22.167969-112.878906 52-90.074219c5.675781-9.980468 16.265625-16.15625 27.746094-16.183594 11.484375-.023437 22.101563 6.105469 27.820313 16.0625 5.71875 9.957032 5.664062 22.214844-.144532 32.121094l-52 90.074219c-.863281 1.5-2.191406 2.679687-3.78125 3.359375l-36.800781 15.703125c-2.316406.992187-4.964844.832031-7.144531-.425781-2.179688-1.257813-3.644532-3.472656-3.945313-5.972656l-4.796875-39.710938c-.195312-1.722656.171875-3.460938 1.046875-4.953125zm-19.199219 78.558594 13.855469 8-8 13.855469-13.855469-8zm-70.242187-77.304688 15.464844-4.140625 4.136719 15.453125-15.457032 4.144531zm45 55.304688 11.320313 11.320312-11.320313 11.3125-11.3125-11.3125zm-10.679687-13.917969-13.855469 8-8-13.855469 13.855469-8zm-30.191407-115.929688 15.457031 4.144532-4.136718 15.457031-15.464844-4.144531zm-6.976562 37h16v16h-16zm0 0"/>
</svg>
